[
    {
        "family": "Roboto",
        "fonts": [
            {
                "asset": "Roboto-Regular.ttf"
            },
            {
                "asset": "Roboto-Medium.ttf",
                "weight": 500
            }
        ]
    },
    {
        "fonts": [
            {
                "asset": "fonts/MaterialIcons-Regular.ttf"
            }
        ],
        "family": "MaterialIcons"
    }
]